Abundance of Fungal Communities in Cheese — cheese_abundance • scimo
…
#> 5 sample2-2 Livarot   Washed         0      0      4      0      1      1      2
#> 6 sample2-3 Livarot   Washed         0      1      2      0      2      1      0
#> 7 sample3-1 Epoisses  Washed         4      2      3      0      2      5      0
#> 8 sample3-2 Epoisses  Washed         0      0      0      0      0      0      0
#> 9 sample3-3 Epoisses  Washed         0      0      1      0      0      0      2
#> # ℹ 67 more variables: asv_08 <dbl>, asv_09 <dbl>, asv_10 <dbl>, asv_11 <dbl>,
#> #   asv_12 <dbl>, asv_13 <dbl>, asv_14 <dbl>, asv_15 <dbl>, asv_16 <dbl>,
#> #   asv_17 <dbl>, asv_18 <dbl>, asv_19 <dbl>, asv_20 <dbl>, asv_21 <dbl>,
#> #   asv_22 <dbl>, asv_23 <dbl>, asv_24 <dbl>, asv_25 <dbl>, asv_26 <dbl>,
#> #   asv_27 <dbl>, asv_28 <dbl>, asv_29 <dbl>, asv_30 <dbl>, asv_31 <dbl>,
#> #   asv_32 <dbl>, asv_33 <dbl>, asv_34 <dbl>, asv_35 <dbl>, asv_36 <dbl>,
#> #   asv_37 <dbl>, asv_38 <dbl>, asv_39 <dbl>, asv_40 <dbl>, asv_41 <dbl>, …
data("cheese_taxonomy", package = "scimo")
cheese_taxonomy
#> # A tibble: 74 × 9
#>    asv    lineage                kingdom phylum class order family genus species
#>    <chr>  <chr>                  <chr>   <chr>  <chr> <chr> <chr>  <chr> <chr>  
#>  1 asv_01 k__Fungi|p__Ascomycot… Fungi   Ascom… Doth… Doth… Dothi… Aure… Aureob…
#>  2 asv_02 k__Fungi|p__Ascomycot… Fungi   Ascom… Euro… Euro… Asper… Aspe… Asperg…
#>  3 asv_03 k__Fungi|p__Ascomycot… Fungi   Ascom… Euro… Euro… Asper… Peni… Penici…
#>  4 asv_04 k__Fungi|p__Ascomycot… Fungi   Ascom… Euro… Euro… Asper… Peni… Penici…
#>  5 asv_05 k__Fungi|p__Ascomycot… Fungi   Ascom… Euro… Euro… Asper… Peni… Penici…
#>  6 asv_06 k__Fungi|p__Ascomycot… Fungi   Ascom… Euro… Euro… Asper… Peni… Penici…
#>  7 asv_07 k__Fungi|p__Ascomycot… Fungi   Ascom… Euro… Euro… Asper… Peni… Penici…
#>  8 asv_08 k__Fungi|p__Ascomycot… Fungi   Ascom… Euro… Euro… Asper… Peni… Penici…
#>  9 asv_09 k__Fungi|p__Ascomycot… Fungi   Ascom… Euro… Euro… Asper… Peni… Penici…
#> 10 asv_10 k__Fungi|p__Ascomycot… Fungi   Ascom… Sacc… Sacc… Debar… Deba… Debary…
#> # ℹ 64 more rows
…
