Feature selection step using Wilcoxon test — step_select_wilcoxon • scimo
…
#> ── Training information 
#> Training data contained 100 data points and no incomplete rows.
#> 
#> ── Operations 
#> • Wilcoxon filtering against Species on: Sepal.Length, ... | Trained
tidy(rec, 1)
#> # A tibble: 4 × 5
#>   terms              pv       qv kept  id                   
#>   <chr>           <dbl>    <dbl> <lgl> <chr>                
#> 1 Sepal.Length 8.35e-14 1.11e-13 FALSE select_wilcoxon_HIyvQ
#> 2 Sepal.Width  2.14e-13 2.14e-13 FALSE select_wilcoxon_HIyvQ
#> 3 Petal.Length 5.65e-18 1.13e-17 TRUE  select_wilcoxon_HIyvQ
#> 4 Petal.Width  2.28e-18 9.14e-18 TRUE  select_wilcoxon_HIyvQ
bake(rec, new_data = NULL)
#> # A tibble: 100 × 3
#>    Petal.Length Petal.Width Species
#>           <dbl>       <dbl> <fct>  
#>  1          1.4         0.2 setosa 
#>  2          1.4         0.2 setosa 
#>  3          1.3         0.2 setosa 
#>  4          1.5         0.2 setosa 
#>  5          1.4         0.2 setosa 
#>  6          1.7         0.4 setosa 
#>  7          1.4         0.3 setosa 
#>  8          1.5         0.2 setosa 
#>  9          1.4         0.2 setosa 
#> 10          1.5         0.1 setosa 
#> # ℹ 90 more rows
…
