Feature aggregation step based on a hierarchical clustering — step_aggregate_hclust • scimo
…
#> ── Training information 
#> Training data contained 150 data points and no incomplete rows.
#> 
#> ── Operations 
#> • `hclust` aggregation of: Sepal.Length and Sepal.Width, ... | Trained
tidy(rec, 1)
#> # A tibble: 4 × 3
#>   terms        aggregate id                    
#>   <chr>        <chr>     <chr>                 
#> 1 Sepal.Length cl_1      aggregate_hclust_SwlKL
#> 2 Sepal.Width  cl_2      aggregate_hclust_SwlKL
#> 3 Petal.Length cl_2      aggregate_hclust_SwlKL
#> 4 Petal.Width  cl_2      aggregate_hclust_SwlKL
juice(rec)
#> # A tibble: 150 × 3
#>    Species  cl_1  cl_2
#>    <fct>   <dbl> <dbl>
#>  1 setosa    5.1   5.1
#>  2 setosa    4.9   4.6
#>  3 setosa    4.7   4.7
#>  4 setosa    4.6   4.8
#>  5 setosa    5     5.2
#>  6 setosa    5.4   6  
#>  7 setosa    4.6   5.1
#>  8 setosa    5     5.1
#>  9 setosa    4.4   4.5
#> 10 setosa    4.9   4.7
#> # ℹ 140 more rows
…
