Feature aggregation step based on a defined list — step_aggregate_list • scimo
…
#> ── Training information 
#> Training data contained 150 data points and no incomplete rows.
#> 
#> ── Operations 
#> • Aggregation of: Sepal.Length, Sepal.Width, Petal.Length, ... | Trained
tidy(rec, 1)
#> # A tibble: 4 × 3
#>   terms        aggregate  id                  
#>   <chr>        <chr>      <chr>               
#> 1 Sepal.Length sepal.size aggregate_list_UUEdL
#> 2 Sepal.Width  sepal.size aggregate_list_UUEdL
#> 3 Petal.Length petal.size aggregate_list_UUEdL
#> 4 Petal.Width  petal.size aggregate_list_UUEdL
juice(rec)
#> # A tibble: 150 × 3
#>    Species sepal.size petal.size
#>    <fct>        <dbl>      <dbl>
#>  1 setosa        17.8       0.28
#>  2 setosa        14.7       0.28
#>  3 setosa        15.0       0.26
#>  4 setosa        14.3       0.3 
#>  5 setosa        18         0.28
#>  6 setosa        21.1       0.68
#>  7 setosa        15.6       0.42
#>  8 setosa        17         0.3 
#>  9 setosa        12.8       0.28
#> 10 setosa        15.2       0.15
#> # ℹ 140 more rows
…
