Feature normalization step using total sum scaling — step_rownormalize_tss • scimo
…
#> ── Training information 
#> Training data contained 150 data points and no incomplete rows.
#> 
#> ── Operations 
#> • TSS normalization on: Sepal.Length and Sepal.Width, ... | Trained
tidy(rec, 1)
#> # A tibble: 4 × 2
#>   terms        id                    
#>   <chr>        <chr>                 
#> 1 Sepal.Length rownormalize_tss_ieexo
#> 2 Sepal.Width  rownormalize_tss_ieexo
#> 3 Petal.Length rownormalize_tss_ieexo
#> 4 Petal.Width  rownormalize_tss_ieexo
juice(rec)
#> # A tibble: 150 × 5
#>    Sepal.Length Sepal.Width Petal.Length Petal.Width Species
#>           <dbl>       <dbl>        <dbl>       <dbl> <fct>  
#>  1        0.5         0.343        0.137      0.0196 setosa 
#>  2        0.516       0.316        0.147      0.0211 setosa 
#>  3        0.5         0.340        0.138      0.0213 setosa 
#>  4        0.489       0.330        0.160      0.0213 setosa 
#>  5        0.490       0.353        0.137      0.0196 setosa 
#>  6        0.474       0.342        0.149      0.0351 setosa 
#>  7        0.474       0.351        0.144      0.0309 setosa 
#>  8        0.495       0.337        0.149      0.0198 setosa 
#>  9        0.494       0.326        0.157      0.0225 setosa 
#> 10        0.510       0.323        0.156      0.0104 setosa 
#> # ℹ 140 more rows
…
